   1.0000000000000000e+00   0.0000000000000000e+00   0.0000000000000000e+00  -2.0000000000000000e+02
   0.0000000000000000e+00   1.0000000000000000e+00   5.5511151231257827e-17   0.0000000000000000e+00
   0.0000000000000000e+00   0.0000000000000000e+00   9.9999999999999989e-01   0.0000000000000000e+00
   0.0000000000000000e+00   0.0000000000000000e+00   0.0000000000000000e+00   1.0000000000000000e+00
