  -9.8179086901383150e-01  -6.2590043352904273e-02   1.7935767615060930e-01  -3.1186804488170701e+01
  -4.9409785842394624e-02   9.9580313385629815e-01   7.7037599034396012e-02   4.7353571018940647e+02
  -1.8342672265532625e-01   6.6772786934927608e-02  -9.8076298479340496e-01   3.8867806818311897e+02
   0.0000000000000000e+00   0.0000000000000000e+00   0.0000000000000000e+00   1.0000000000000000e+00
