   1.9499654000000000e+03   0.0000000000000000e+00   1.0240000000000000e+03
   0.0000000000000000e+00   1.9492798000000000e+03   7.8164413000000002e+02
   0.0000000000000000e+00   0.0000000000000000e+00   1.0000000000000000e+00
